Hyperlinks and list Elements - 4.7.2-3
Tab Order -4.11.2
Image Format Type-5.2.2-3 , 5.3.1-2-3
		5.4.1-2-3,5.5.1-2
		5.7.3
SVG Image - 5.8.3, 5.9.1-2
Audio Control - 5.11.1-2-3
Video Control - 5.12.1-2-3 , 5.13.1-2-3
	         5.14.2
Layout - 6.2.1-3,6.3.1-2-3
Colgroup,Colspan - 6.9.3
Form	 (TextField,Checkboxes,Radio)- 7.3.1-2-3
                     	(Email , Search , Rating,	-7.4.1-2-3,7.5.1-3
	Number,Date,Month,Week)
	(comment,Select)		-7.6.1-2-3
	(fieldset,Legent,Form)	-7.7.1-2
Div - 8.3.3, 8.4.1-2-3, 8.6.2,8.11.1-2
Testing - 11.4.3 ,  
--------------------------------------------------------------------------------------
GUI-Graphic User Interface

Protyping- Shae Pyay pone san
project sa ma lote khin design cha mae pone san

mockup-website pone san lote tr(fake)